Análise multivariada da resposta subjetiva ao tratamento • TelePsi
…
dados_processados <- receita |> 
    recipes::prep() |> 
    recipes::bake(new_data = NULL)

dados_processados

#> # A tibble: 709 × 16
#>     b_a7  b_a8  b_d1  b_d2  b_d3  b_d5  b_d6  b_d8  b_i2  b_i4 b_son8 g_vid
#>    <dbl> <dbl> <dbl> <dbl> <dbl> <dbl> <dbl> <dbl> <dbl> <dbl>  <dbl> <dbl>
#>  1     4     4     1     1     3     1     1     1     1     1      3     5
#>  2     3     3     1     1     3     3     1     1     3     1      2     6
#>  3     5     5     3     2     5     2     4     4     2     2      3     8
#>  4     4     4     1     3     3     3     3     2     3     4      3    11
#>  5     5     4     2     4     4     3     3     3     3     2      3     7
#>  6     3     3     2     2     3     2     1     2     1     2      3     8
#>  7     5     5     1     1     2     2     2     2     5     5      4     8
#>  8     4     3     1     2     3     1     1     2     2     4      3     5
#>  9     4     4     3     4     4     2     4     3     2     2      2     7
#> 10     5     3     2     3     3     3     2     2     5     2      5     3
#> # … with 699 more rows, and 4 more variables: resposta <fct>,
#> #   b_cov9l_Sim <dbl>, b_cov9p_Sim <dbl>, b_cov9v_Sim <dbl>
…
